%YAML 1.1
%TAG !u! tag:unity3d.com,2011:
--- !u!1045 &1
EditorBuildSettings:
  m_ObjectHideFlags: 0
  serializedVersion: 2
  m_Scenes:
  - enabled: 0
    path: Assets/Scenes/SampleScene.unity
    guid: 9fc0d4010bbf28b4594072e72b8655ab
  - enabled: 1
    path: Assets/_Project/Scenes/Lvl 1.unity
    guid: 2e855695dbc0cf9458ca9da7d79a45d4
  - enabled: 1
    path: Assets/_Project/Scenes/Lvl 2.unity
    guid: 24a0dab44ad019c4d82f85c99e6c43cf
  - enabled: 1
    path: Assets/_Project/Scenes/Finish.unity
    guid: 67541b314c262704bb240acd290f4dec
  m_configObjects: {}
